Manipuler des bases de données avec dplyr
…
−+

02:00

---

.small[

```r
gapminder
```

```
## # A tibble: 1,704 × 6
##    country     continent  year lifeExp      pop gdpPercap
##    <fct>       <fct>     <int>   <dbl>    <int>     <dbl>
##  1 Afghanistan Asia       1952    28.8  8425333      779.
##  2 Afghanistan Asia       1957    30.3  9240934      821.
##  3 Afghanistan Asia       1962    32.0 10267083      853.
##  4 Afghanistan Asia       1967    34.0 11537966      836.
##  5 Afghanistan Asia       1972    36.1 13079460      740.
##  6 Afghanistan Asia       1977    38.4 14880372      786.
##  7 Afghanistan Asia       1982    39.9 12881816      978.
##  8 Afghanistan Asia       1987    40.8 13867957      852.
##  9 Afghanistan Asia       1992    41.7 16317921      649.
## 10 Afghanistan Asia       1997    41.8 22227415      635.
## # … with 1,694 more rows
```
…
---

<code class ='r hljs remark-code'>mutate(gapminder, <br>&nbsp;&nbsp;&nbsp;&nbsp;&nbsp;&nbsp;&nbsp;after_1960 = <b><span style='background-color:#FFC0DC'>year > 1960</span></b>)</code>

<code class ='r hljs remark-code'>mutate(gapminder, <br>&nbsp;&nbsp;&nbsp;&nbsp;&nbsp;&nbsp;&nbsp;after_1960 = ifelse(<b><span style='background-color:#FFC0DC'>year > 1960</span></b>, <br>&nbsp;&nbsp;&nbsp;&nbsp;&nbsp;&nbsp;&nbsp;&nbsp;&nbsp;&nbsp;&nbsp;&nbsp;&nbsp;&nbsp;&nbsp;&nbsp;&nbsp;&nbsp;&nbsp;&nbsp;&nbsp;&nbsp;&nbsp;&nbsp;&nbsp;&nbsp;&nbsp;<b><span style='background-color:#FFDFD1'>"After 1960"</span></b>, <br>&nbsp;&nbsp;&nbsp;&nbsp;&nbsp;&nbsp;&nbsp;&nbsp;&nbsp;&nbsp;&nbsp;&nbsp;&nbsp;&nbsp;&nbsp;&nbsp;&nbsp;&nbsp;&nbsp;&nbsp;&nbsp;&nbsp;&nbsp;&nbsp;&nbsp;&nbsp;&nbsp;<b><span style='background-color:#CBB5FF'>"Before 1960"</span></b>))</code>

---

<code class ='r hljs remark-code'>mutate(gapminder, <br>&nbsp;&nbsp;&nbsp;&nbsp;&nbsp;&nbsp;&nbsp;after_1960 = <b><span style='background-color:#FFC0DC'>year > 1960</span></b>)</code>

```
## # A tibble: 1,704 × 7
##    country     continent  year lifeExp      pop gdpPercap after_1960
##    <fct>       <fct>     <int>   <dbl>    <int>     <dbl> <lgl>     
##  1 Afghanistan Asia       1952    28.8  8425333      779. FALSE     
##  2 Afghanistan Asia       1957    30.3  9240934      821. FALSE     
##  3 Afghanistan Asia       1962    32.0 10267083      853. TRUE      
##  4 Afghanistan Asia       1967    34.0 11537966      836. TRUE      
##  5 Afghanistan Asia       1972    36.1 13079460      740. TRUE      
##  6 Afghanistan Asia       1977    38.4 14880372      786. TRUE      
##  7 Afghanistan Asia       1982    39.9 12881816      978. TRUE      
##  8 Afghanistan Asia       1987    40.8 13867957      852. TRUE      
##  9 Afghanistan Asia       1992    41.7 16317921      649. TRUE      
## 10 Afghanistan Asia       1997    41.8 22227415      635. TRUE      
## # … with 1,694 more rows
```
…
---

```
## # A tibble: 1,704 × 7
##    country     continent  year lifeExp      pop gdpPercap decennie 
##    <fct>       <fct>     <int>   <dbl>    <int>     <dbl> <chr>    
##  1 Afghanistan Asia       1952    28.8  8425333      779. années 50
##  2 Afghanistan Asia       1957    30.3  9240934      821. années 50
##  3 Afghanistan Asia       1962    32.0 10267083      853. années 60
##  4 Afghanistan Asia       1967    34.0 11537966      836. années 60
##  5 Afghanistan Asia       1972    36.1 13079460      740. années 70
##  6 Afghanistan Asia       1977    38.4 14880372      786. années 70
##  7 Afghanistan Asia       1982    39.9 12881816      978. années 80
##  8 Afghanistan Asia       1987    40.8 13867957      852. années 80
##  9 Afghanistan Asia       1992    41.7 16317921      649. années 90
## 10 Afghanistan Asia       1997    41.8 22227415      635. années 90
## # … with 1,694 more rows
```
…
